{
  "Portalconfig":
  {
    "portalTitle":
    {
      "title": "Master",
      "logo": "/lgv-config/img/hh-logo.png",
      "link": "http://geoinfo.hamburg.de",
      "tooltip": "Landesbetrieb Geoinformation und Vermessung"
    },
    "searchBar":
    {
      "gazetteer":
      {
        "minChars": 3,
        "serviceId": "8",
        "searchStreets": true,
        "searchHouseNumbers": true,
        "searchDistricts": true,
        "searchParcels": true,
        "searchStreetKey": true
      },
      "bkg":
      {
        "minChars": 3,
        "suggestServiceId": "4",
        "geosearchServiceId": "5",
        "extent": [454591, 5809000, 700000, 6075769],
        "suggestCount": 10,
        "epsg": "EPSG:25832",
        "filter": "filter=(typ:*)",
        "score": 0.6
      },
      "osm": {
        "minChars": 3,
        "serviceId": "10",
        "limit": 60,
        "states": "Hamburg",
        "classes": "place,highway,building,shop,historic,leisure"
      },
      "specialWFS":
      {
        "minChars": 3,
        "timeout": 10000,
        "definitions": [
          {
            "url": "/geodienste_hamburg_de/MRH_WFS_Rotenburg",
            "typeName": "app:mrh_row_bplan",
            "propertyNames": ["app:name"],
            "name": "B-Plan"
          },
          {
            "url": "/geodienste_hamburg_de/HH_WFS_Bebauungsplaene",
            "typeName": "app:prosin_festgestellt",
            "propertyNames": ["app:planrecht"],
            "geometryName": "app:geom",
            "name": "festgestellt"
          },
          {
            "url": "/geodienste_hamburg_de/HH_WFS_Bebauungsplaene",
            "typeName": "app:prosin_imverfahren",
            "propertyNames": ["app:plan"],
            "geometryName": "app:the_geom",
            "name": "im Verfahren"
          },
          {
            "url": "/geodienste_hamburg_de/HH_WFS_KitaEinrichtung",
            "typeName": "app:KitaEinrichtungen",
            "propertyNames": ["app:Name"],
            "name": "Kita"
          },
          {
            "url": "/geodienste_hamburg_de/HH_WFS_Stoerfallbetriebe",
            "typeName": "app:stoerfallbetrieb",
            "propertyNames": ["app:standort"],
            "name": "Störfallbetrieb"
          }
        ]
      },
      "visibleWFS":
      {
        "minChars": 3
      },
      "zoomLevel": 9,
      "placeholder": "Suche nach Adresse/Krankenhaus/B-Plan"
    },
    "mapView":
    {
      "backgroundImage": "/lgv-config/img/backgroundCanvas.jpeg",
      "startCenter": [561210, 5932600]
    },
    "menu":
    {
      "tree":
      {
        "name": "Themen",
        "glyphicon": "glyphicon-list",
        "isInitOpen": false
      },
      "ansichten": {
        "name" : "Ansichten",
        "glyphicon": "glyphicon-list",
        "children": {
          "view1": {
            "name": "Ansicht1",
            "type" : "viewpoint",
            "glyphicon": "glyphicon-screenshot",
            "heading": -0.30858728378862876,
            "tilt": 0.9321791580603296,
            "altitude" :272.3469798217454,
            "center" : [564028.7954571751,5934555.967867207],
            "zoomLevel" :  7.456437968949651
          }
        }
      },
      "schulwegrouting": {
        "name": "Schulweg-Routing",
        "glyphicon": "glyphicon-filter",
        "layerId": "8712"
      },
      "filter":
      {
        "name": "Filter",
        "glyphicon": "glyphicon-filter",
        "deactivateGFI": false,
        "isGeneric": false,
        "isInitOpen": false,
        "allowMultipleQueriesPerLayer": false,
        "predefinedQueries": [
            {
              "layerId": "8712",
              "isActive": false,
              "isSelected": false,
              "name": "Grundschulen",
              "predefinedRules": [
              {
                "attrName": "kapitelbezeichnung",
                "values": ["Grundschulen", "Langformschulen"]
              }],
              "attributeWhiteList": ["bezirk", "stadtteil", "schulform", "ganztagsform", "anzahl_schueler", "schwerpunktschule", "bilingual"]
            },
            {
              "layerId": "8712",
              "isActive": false,
              "isSelected": false,
              "name": "Stadtteilschulen",
              "predefinedRules": [
              {
                "attrName": "kapitelbezeichnung",
                "values": ["Stadtteilschulen", "Langformschulen"]
              }],
              "attributeWhiteList": ["bezirk", "stadtteil", "schulform", "ganztagsform", "anzahl_schueler", "schwerpunktschule", "fremdsprache", "fremdsprache_mit_klasse", "schulische_ausrichtung"]
            },
            {
              "layerId": "8712",
              "isActive": false,
              "isSelected": false,
              "name": "Gymnasien",
              "info": "Sie finden berufliche Gymnasien ab der Klassenstufe 11 bei den Beruflichen Schulen.",
              "predefinedRules": [
              {
                "attrName": "kapitelbezeichnung",
                "values": ["Gymnasien"]
              }],
              "attributeWhiteList": ["bezirk", "stadtteil", "schulform", "ganztagsform", "anzahl_schueler", "fremdsprache", "fremdsprache_mit_klasse", "schulische_ausrichtung"]
            },
            {
              "layerId": "8712",
              "isActive": false,
              "isSelected": false,
              "name": "Sonderschulen",
              "predefinedRules": [
                {
                  "attrName": "kapitelbezeichnung",
                  "values": ["Sonderschulen"]
                }
              ],
              "attributeWhiteList": ["bezirk", "stadtteil", "ganztagsform", "foerderart", "abschluss"]
            },
            {
              "layerId": "1711",
              "isActive": true,
              "isSelected": true,
              "name": "Krankenhäuser",
              "predefinedRules": [],
              "attributeWhiteList": ["teilnahme_geburtsklinik", "teilnahme_notversorgung"]
            }
          ]
      },
      "tools":
      {
        "name": "Werkzeuge",
        "glyphicon": "glyphicon-wrench",
        "children": {
          "einwohnerabfrage": {
            "name": "Einwohneranzahl abfragen",
            "glyphicon": "glyphicon-wrench",
            "onlyDesktop": true
          },
          "compareFeatures": {
            "name": "Vergleichsliste",
            "glyphicon": "glyphicon-th-list"
          },
          "parcelSearch":
          {
            "name": "Flurstückssuche",
            "glyphicon": "glyphicon-search",
            "serviceId": "6",
            "storedQueryID": "Flurstueck",
            "configJSON": "/lgv-config/gemarkungen_hh.json",
            "parcelDenominator": false
          },
          "measure":
          {
            "name": "Strecke / Fläche messen",
            "glyphicon": "glyphicon-resize-full"
          },
          "coord":
          {
            "name": "Koordinaten abfragen",
            "glyphicon": "glyphicon-screenshot"
          },
          "gfi":
          {
            "name": "Informationen abfragen",
            "glyphicon": "glyphicon-info-sign",
            "isActive": true
          },
          "print":
          {
            "name": "Karte drucken",
            "glyphicon": "glyphicon-print",
            "mapfishServiceId": "mapfish_qs",
            "printAppId": "mrh",
            "filename": "Ausdruck",
            "title": "Mein Titel",
            "version" : "mapfish_print_3"
          },
          "searchByCoord":
          {
            "name": "Koordinatensuche",
            "glyphicon": "glyphicon-record"
          },
          "kmlimport":
          {
            "name": "KML Import",
            "glyphicon": "glyphicon-import"
          },
          "wfsFeatureFilter":
          {
            "name": "Feature Filter",
            "glyphicon": "glyphicon-filter",
            "deactivateGFI": false
          },
          "extendedFilter":
          {
            "name": "Erweiterter Filter",
            "glyphicon": "glyphicon-filter",
            "deactivateGFI": false
          },
          "routing":
          {
            "name": "Routenplaner",
            "glyphicon": "glyphicon-road",
            "viomRoutingID": "7",
            "bkgSuggestID": "4",
            "bkgGeosearchID": "5",
            "isInitOpen": false
          },
          "draw":
          {
            "name": "Zeichnen / Schreiben",
            "glyphicon": "glyphicon-pencil"
          },
          "styleWMS": {
            "name": "Style WMS",
            "glyphicon": "glyphicon-tint",
            "onlyDesktop": true
          },
          "featureLister": {
            "name": "Liste",
            "glyphicon": "glyphicon-menu-hamburger",
            "lister": 10
          },
          "lines": {
            "name": "Pendler (Lines)",
            "glyphicon": "glyphicon-play-circle"
          },
          "animation":
          {
            "name": "Pendler (Animation)",
            "glyphicon": "glyphicon-play-circle",
            "steps": 30,
            "url": "http://geodienste.hamburg.de/MRH_WFS_Pendlerverflechtung",
            "params": {
                "REQUEST": "GetFeature",
                "SERVICE": "WFS",
                "TYPENAME": "app:mrh_kreise",
                "VERSION": "1.1.0",
                "maxFeatures": "10000"
            },
            "featureType": "mrh_einpendler_gemeinde",
            "attrAnzahl": "anzahl_einpendler",
            "attrGemeinde": "wohnort",
            "minPx": 5,
            "maxPx": 30,
            "zoomlevel": 1,
            "colors": ["rgba(255,0,0,0.5)", "rgba(0,255,0,0.5)", "rgba(0,0,255,0.5)", "rgba(0,255,255,0.5)"]
          },
          "saveSelection": {
            "name": "Auswahl speichern",
            "glyphicon": "glyphicon-share"
          },
          "layerslider": {
            "name": "Zeitreihe",
            "glyphicon": "glyphicon-film",
            "title": "Simulation von Beispiel-WMS",
            "timeInterval": 2000,
            "layerIds": [
              {
                "title": "Dienst 1",
                "layerId": "8730"
              },
              {
                "title": "Dienst 2",
                "layerId": "2426"
              },
              {
                "title": "Dienst 3",
                "layerId": "4561"
              }
            ]
          }
        }
      },
      "legend":
      {
        "name": "Legende",
        "glyphicon": "glyphicon-book"
      },
      "contact":
      {
        "name": "Kontakt",
        "glyphicon": "glyphicon-envelope",
        "serviceID": "80001",
        "includeSystemInfo": true
      },
      "info":
      {
        "name": "Informationen",
        "glyphicon": "glyphicon-info-sign",
        "children":
        {
          "staticlinks": [
          {
            "name": "Haftungsausschluss",
            "glyphicon": "glyphicon-globe",
            "url": "http://preview.poc.hamburg.de/hhcae-cm7/servlet/segment/de/energiewende/waermekataster/8348242/waermekataster-haftungsausschuss"
          },
          {
            "name": "Hamburg",
            "glyphicon": "glyphicon-globe",
            "url": "http://www.hamburg.de"
          }]
        }
      }
    },
    "controls":
    {
      "fullScreen": true,
      "orientation3d": true,
      "zoom": true,
      "orientation": {
        "zoomMode": "once",
        "poiDistances": [500, 1000, 2000]
      },
      "totalview": true,
      "attributions":
      {
        "isInitOpenDesktop": true,
        "isInitOpenMobile": false
      },
      "overviewmap":
      {
        "resolution": 611.4974492763076,
        "baselayer": "452"
      },
      "mousePosition": true,
      "button3d": true,
      "buttonOblique": true,
      "freeze": true
    },
    "scaleLine": true,
    "Baumtyp": "light"
  },
  "Themenconfig":
  {
    "Hintergrundkarten":
    {
      "Layer": [
        {
          "id": "453",
          "visibility": true
        },
        {
          "id": "452"
        },
        {
          "id": ["713", "714", "715", "716"],
          "name": "Geobasiskarten (schwarz-weiß)",
          "visibility": false
        },
        {
          "id": "12883",
          "name": "Gelände",
          "visibility": true
        },
        {
          "id": "12884",
          "name": "Gebäude LoD2",
          "visibility": true
        },
        {
          "id": "12885",
          "name": "Oblique",
          "visibility": true
        }
      ]
    },
    "Fachdaten":
    {
      "Layer": [
      {
        "id": "8194"
      },
      {
        "id": "2128",
        "styleId": "2128"
      },
      {
        "id": "8730"
      },
      {
        "id": "10220"
      },
      {
        "id": "2426"
      },
      {
        "id": "1933",
        "infoFormat": "application/vnd.ogc.gml"
      },
      {
        "id": "4561",
        "infoFormat": "text/html"
      },
      {
        "id": "441"
      },
      {
        "id": "1562",
        "layerAttribution": "<span>Attributierung für Fachlayer Test Test Test Test Test Test Test Test</span>"
      },
      {
        "id": "3302",
        "gfiTheme": "trinkwasser",
        "featureCount": 5
      },
      {
        "id": "2059",
        "styleId": "2059",
        "clusterDistance": 30
      },
      {
        "id": "5708",
        "visibility": false,
        "styleable": true,
        "geomType": "Polygon",
        "attributesToStyle": [
          "Pkw_AP30"
        ]
      },
      {
        "id": "2003",
        "styleId": "2003",
        "mouseHoverField": "gebietsname"
      },
      {
        "id": "47",
        "styleId": "47",
        "mouseHoverField": ["beginn", "ende"],
        "autoRefresh": 6000
      },
      {
        "id": "2714",
        "gfiTheme": "reisezeiten",
        "styleId": "2119"
      },
      {
        "id": "4905",
        "gfiTheme": "table",
        "featureCount": 20
      },
      {
        "id": "2404",
        "styleId": "45",
        "clusterDistance": 40,
        "routable": true
      },
      {
        "id": "4479"
      },
      {
        "id": ["4537", "4538"],
        "name": "Eignungsflächen",
        "legendURL": ["http://www.geoportal-hamburg.de/legende/legende_solar.png"],
        "gfiTheme": "solaratlas",
        "attributions": "<span>Darstellung der Eignungsflächen ab Maßstab 1: 5000 </span>"
      },
      {
        "id": "2407",
        "infoFormat": "text/html"
      },
      {
        "id": "1711",
        "styleId": "1711",
        "visibility": true,
        "layerAttribution": "<span>Attributierung für Fachlayer</span>",
        "mouseHoverField": ["name", "strasse"],
        "searchField": "name",
        "filterOptions": [
          {
            "fieldName": "teilnahme_geburtsklinik",
            "filterType": "combo",
            "filterName": "Geburtshilfe",
            "filterString": ["*", "Ja", "Nein"]
          },
          {
            "fieldName": "teilnahme_notversorgung",
            "filterType": "combo",
            "filterName": "Not- und Unfallversorgung",
            "filterString": ["*", "Ja", "Eingeschränkt", "Nein"]
          }
        ],
        "extendedFilter": true
      },
      {
        "id": "8712",
        "visibility": true,
        "name": "Schulinfosystem",
        "styleId": "8712",
        "searchField": "schulname",
        "mouseHoverField": ["schulname", "kapitelbezeichnung"],
        "gfiTheme": "schulinfo",
        "additionalInfoField": "adresse_strasse_hausnr"
      },
      {
        "id": "753",
        "styleId": "753",
        "visibility": false,
        "mouseHoverField": "Name",
        "extendedFilter": true,
        "filterOptions": [
        {
          "fieldName": "Bezirk",
          "filterType": "combo",
          "filterName": "Bezirk",
          "filterString": ["*", "Altona"]
        }]
      },
      {
        "id": "8145",
        "visibility": true,
        "styleId": "8145",
        "hitTolerance": 25,
        "mouseHoverField": "kategorie",
        "extendedFilter": true
      },
      {
        "id": "myId",
        "children": [
          {
            "id": "946"
          },
          {
            "id": "947"
          }
        ],
        "name": "Verkehrslage auf Autobahnen",
        "layerAttribution":
        {
          "text": "",
          "channel": "Verkehrsfunctions",
          "eventname": "aktualisiereverkehrsnetz",
          "timeout": 60000
        }
      },
      {
        "id": "myId2",
        "children": [
          {
            "id": "682"
          },
          {
            "id": "1731"
          }
        ],
        "name": "Kita und KH"
      },
      {
        "id": "13023"
      }]
    }
  }
}
